{
    "1001": {
        "msg": "Username cannot be empty",
        "style": "bg-danger",
        "details": ""
    }, 
    "1002": { 
        "msg": "Password cannot be empty",
        "style": "bg-danger",
        "details": ""
    },
    "1003": { 
        "msg": "Password confirmation is required",
        "style": "bg-danger",
        "details": ""
    },
    "1004": { 
        "msg": "Name only can contains letters and whitespace",
        "style": "bg-danger",
        "details": ""
    },
    "1005": {
        "msg": "Email is not valid",
        "style": "bg-danger",
        "details": ""
    }, 
    "1006": { 
        "msg": "Password must be at least 8 characters and must contain at least one lower case letter, one upper case letter and one digit",
        "style": "bg-danger",
        "details": ""
    },
    "1007": { 
        "msg": "The passwords do not match",
        "style": "bg-danger",
        "details": ""
    },
    "1008": { 
        "msg": "Date must comply with this mask: YYYY.MM.DD",
        "style": "bg-danger",
        "details": ""
    },
    "1009": {
        "msg": "Username is taken",
        "style": "bg-danger",
        "details": ""
    }, 
    "1010": { 
        "msg": "There is an account with this email, already",
        "style": "bg-danger",
        "details": ""
    },
    "1011": { 
        "msg": "You need to activate your account before login",
        "style": "bg-warning",
        "details": "We sent an email to you to your email address with an activation link."
    },
    "1012": { 
        "msg": "Activation successful",
        "style": "bg-success",
        "details": ""
    },
    "1013": {
        "msg": "Account does not activated",
        "style": "bg-danger",
        "details": ""
    }, 
    "1014": { 
        "msg": "Password does not match.",
        "style": "bg-danger",
        "details": ""
    },
    "1015": { 
        "msg": "Username not found in the database",
        "style": "bg-danger",
        "details": ""
    },
    "1016": { 
        "msg": "Link title cannot be empty",
        "style": "bg-danger",
        "details": ""
    },
    "1017": { 
        "msg": "Link url cannot be empty",
        "style": "bg-danger",
        "details": ""
    },
    "1018": { 
        "msg": "Link description cannot be empty",
        "style": "bg-danger",
        "details": ""
    },
    "1019": { 
        "msg": "Link keywords cannot be empty",
        "style": "bg-danger",
        "details": ""
    },
    "1020": {
        "msg": "URL format is not valid",
        "style": "bg-danger",
        "details": ""
    }, 
    "1021": { 
        "msg": "This URL is already in our database.",
        "style": "bg-danger",
        "details": ""
    },
    "1022": { 
        "msg": "You have added one url successfully",
        "style": "bg-success",
        "details": "You can add another one now."
    },
    "1023": { 
        "msg": "You have to choose a category",
        "style": "bg-danger",
        "details": ""
    },
    "1024": { 
        "msg": "You have not got admin rights",
        "style": "bg-danger",
        "details": ""
    },
    "1025": { 
        "msg": "The page uri has been taken already",
        "style": "bg-danger",
        "details": ""
    },
    "1026": { 
        "msg": "The page contents has been saved successfully",
        "style": "bg-success",
        "details": ""
    },
    "1027": {
        "msg": "Name cannot be empty",
        "style": "bg-danger",
        "details": ""
    }, 
    "1028": {
        "msg": "Message cannot be empty",
        "style": "bg-danger",
        "details": ""
    }, 
    "1029": {
        "msg": "Invalid Recaptcha response",
        "style": "bg-danger",
        "details": ""
    },
    "1030": { 
        "msg": "Message sent successfully",
        "style": "bg-success",
        "details": ""
    },
    "1031": { 
        "msg": "We could not send your message, please try again later",
        "style": "bg-danger",
        "details": ""
    },
    "1032": { 
        "msg": "This email doesn't exists in our database.",
        "style": "bg-danger",
        "details": ""
    },
    "1033": { 
        "msg": "We sent email message to your email address.",
        "style": "bg-warning",
        "details": "Please, follow the instuctions in the message."
    },
    "1034": { 
        "msg": "Wrong token.",
        "style": "bg-danger",
        "details": ""
    },
    "1035": { 
        "msg": "Your password has been changed.",
        "style": "bg-success",
        "details": ""
    },
    "1036": { 
        "msg": "Bad request.",
        "style": "bg-danger",
        "details": ""
    },
    "1037": { 
        "msg": "Password reset token expired.",
        "style": "bg-danger",
        "details": "Please, request for another one <a href='/passwordreset'>Click here</a>"
        }
    }